N,Prize $,User,Pts
1,$30,User1,200000
2,$29,User2,198000
3,$28,User3,194000
4,$27,User4,188000
5,$26,User5,180000
6,$25,User6,177000
7,$24,User7,172000
8,$23,User8,167000
9,$22,User9,162000
10,$21,User10,157000
11,$20,User11,152000
12,$19,User12,147000
13,$18,User13,142000
14,$17,User14,137000
15,$16,User15,132000
16,$15,User16,127000
17,$14,User17,122000
18,$13,User18,117000
19,$12,User19,112000
20,$11,User20,107000
21,$10,User21,102000
22,$9,User22,97000
23,$8,User23,92000
24,$7,User24,87000
25,$6,User25,82000
26,$5,User26,77000
27,$4,User27,72000
28,$3,User28,67000
29,$2,User29,62000
30,$1,User30,57000