<?xml version="1.0" encoding="utf-8"?>
<svg width="12px" height="7px" viewBox="0 0 12 7" version="1.1" xmlns:xlink="http://www.w3.org/1999/xlink" xmlns="http://www.w3.org/2000/svg">
  <desc>Created with Lunacy</desc>
  <path d="M11.7516 0.222143C11.6036 0.0740068 11.4281 0 11.2254 0L0.748423 0C0.545611 0 0.37028 0.0740068 0.222143 0.222143C0.0740068 0.370444 0 0.545775 0 0.748464C0 0.951113 0.0740068 1.12644 0.222143 1.27462L5.46066 6.51313C5.60896 6.66127 5.78429 6.73544 5.98694 6.73544C6.18958 6.73544 6.36508 6.66127 6.51309 6.51313L11.7516 1.27458C11.8996 1.12644 11.9739 0.951113 11.9739 0.748423C11.9739 0.545775 11.8996 0.370444 11.7516 0.222143Z" id="Path" fill="#FFFFFF" stroke="none" />
</svg>