<?xml version="1.0" encoding="utf-8"?>
<svg width="11px" height="24px" viewBox="0 0 11 24" version="1.1" xmlns:xlink="http://www.w3.org/1999/xlink" xmlns="http://www.w3.org/2000/svg">
  <desc>Created with Lunacy</desc>
  <path d="M10.3186 11.6382L7.12959 11.6382L7.12959 23.3213L2.29795 23.3213L2.29795 11.6382L0 11.6382L0 7.53228L2.29795 7.53228L2.29795 4.87529C2.29795 2.97526 3.2005 0 7.1726 0L10.7516 0.0149735L10.7516 4.00046L8.1548 4.00046C7.72885 4.00046 7.12991 4.21327 7.12991 5.11965L7.12991 7.53611L10.7407 7.53611L10.3186 11.6382Z" id="Path" fill="#FFFFFF" stroke="none" />
</svg>