<svg xmlns="http://www.w3.org/2000/svg" width="20" height="20" viewBox="0 0 20 20">
    <path fill="#43CB83" fill-rule="nonzero" d="M10 0C4.5 0 0 4.5 0 10s4.5 10 10 10 10-4.5 10-10S15.5 0 10 0zm1 15H9V9h2v6zm0-8H9V5h2v2z"/>
</svg>
