<?xml version="1.0" encoding="utf-8"?>
<svg width="20px" height="25px" viewBox="0 0 20 25" version="1.1" xmlns:xlink="http://www.w3.org/1999/xlink" xmlns="http://www.w3.org/2000/svg">
  <desc>Created with Lunacy</desc>
  <path d="M11.1954 17.8865C9.69415 17.7704 9.06335 17.0259 7.886 16.3112C7.23892 19.7063 6.44813 22.9608 4.10583 24.661C3.38193 19.5297 5.16707 15.6755 5.99609 11.5845C4.58299 9.20576 6.166 4.41779 9.14653 5.59762C12.8149 7.04824 5.9706 14.4426 10.5653 15.3661C15.3621 16.3304 17.3203 7.04293 14.3455 4.02204C10.0474 -0.339374 1.83468 3.92293 2.84459 10.1665C3.0906 11.6928 4.66795 12.1562 3.47468 14.2624C0.723879 13.6532 -0.0966518 11.4836 0.00883488 8.59125C0.1791 3.85673 4.26299 0.541688 8.35928 0.082927C13.5398 -0.496896 18.4021 1.98523 19.0733 6.85815C19.8283 12.358 16.7345 18.3141 11.1954 17.8865L11.1954 17.8865Z" id="Path" fill="#F1F2F2" stroke="none" />
</svg>