<?xml version="1.0" encoding="utf-8"?>
<svg width="12px" height="12px" viewBox="0 0 12 12" version="1.1" xmlns:xlink="http://www.w3.org/1999/xlink" xmlns="http://www.w3.org/2000/svg">
  <desc>Created with Lunacy</desc>
  <g id="star">
    <path d="M11.6859 4.32138L7.80931 3.94455L6.26943 0.196815C6.1616 -0.0656051 5.80662 -0.0656051 5.69882 0.196815L4.15893 3.94452L0.282384 4.32138C0.0109342 4.34775 -0.0987469 4.70162 0.106036 4.89018L3.03091 7.58323L2.17493 11.5639C2.11499 11.8426 2.40221 12.0613 2.63659 11.9154L5.98412 9.83209L9.33166 11.9154C9.56606 12.0613 9.85322 11.8426 9.79331 11.5639L8.93731 7.58323L11.8622 4.89018C12.067 4.70162 11.9573 4.34775 11.6859 4.32138Z" transform="translate(0.01587737 0.0210076)" id="Path" fill="#FFEB3B" stroke="none" />
  </g>
</svg>